{
  "Version": "1.0",
  "CredentialsProvider": {
    "CognitoIdentity": {
      "Default": {
        "PoolId": "ap-south-1:1332dbc1-29d7-4be9-9466-91fd96576415",
        "Region": "ap-south-1"
      }
    }
  },
  "IdentityManager": {
    "Default": {
    }
  },
  "S3": {
    "Default": {
      "Region": "ap-south-1"
    }
  },
  "S3TransferUtility": {
    "Default": {
      "Bucket": "com.vervone.kidskonnect",
      "Region": "ap-south-1"
    }
  },
  "S3TransferManager": {
    "Default": {
      "Region": "ap-south-1"
    }
  }
}